Mario Rossi,Via Cumano 13,3401234567
Tessa Bianchi,Via Toti 14,3331112233
Lucio Verdi,Via Foschiatti 11,3284326799
Delio Rossi,Viale Miramare 13,3351251257
Carla Bruni,Via Parigi 1,3433217654
Giovanna Rossi,Via D'Azeglio 2,3934560987
